{
   "took":42,
   "timed_out":false,
   "_shards":{
      "total":1,
      "successful":1,
      "failed":0
   },
   "hits":{
      "total":104370,
      "max_score":null,
      "hits":[
         {
            "_index":"ionews_es",
            "_type":"diario",
            "_id":"3149_61",
            "_score":null,
            "fields":{
               "month":[
                  "06"
               ],
               "year":[
                  "2015"
               ],
               "day":[
                  "12"
               ],
               "diario_id":[
                  3149
               ],
               "pagina":[
                  61
               ]
            },
            "highlight":{
               "conteudo":[
                  " legais\nconferidas dos autos R <strong>A</strong> T I F I C\nO em todos os seus termos o ato de\nDispensa de Licitação nos termos\nacima, <strong>a</strong> contratação da empresa\nAGROPAULOS\nPRODUTOS\nSANEANTES LTDA ME, inscrita\nno CNPJ nº 13.633.230/000130, situada <strong>a</strong> Rua Itaoca, nº 222,\nPraia de Itaperica- Vila Velha/\nES, Cep 29.102-205 no valor\nglobal de R$ 2.200,00 (dois mil e\nduzentos reais), consta o elemento\nde\ndespesas\n<strong>a</strong>\nclassificação\n33903000000-Material\nde\nConsumo, com fulcro no art. 24,\ninciso II da Lei nº 8.666/93.",
                  "\nPublique-se; e após <strong>a</strong> SECRETARIA\nMUNICIPAL DE SAÚDE, para\nempenho.\nPedro Canário, ES, 10 de junho de\n2015.\nANTÔNIO WILSON FIOROT\nPrefeito Municipal\nProtocolo 158039\n\nPonto Belo\nEXTRATOS DE CONTRATOS\n“ALUGUEL SOCIAL”\nCONTRATANTE:\nSecretaria\nMunicipal de Assistência Social/\nFundo Municipal de Assistência\nSocial.\nCONTRATADO:\nJOAO\nVIEIRA\nMARTINS OBJETO: Locação de um\nimóvel urbano legitimado e situado\nRua Ibicaraí, s/nº, Vila Nova, Ponto\nBelo/ES que servirá de moradia\npara <strong>a</strong> Sr. AURELINO BERNARDO\nDA SILVA.",
                  " Valor: 150,00 (cento e\ncinquenta reais) mensal. Vigência:\n01/05/2015 <strong>a</strong> 31/12/2015.\nPonto Belo/ES, 04 de maio de 2015.\nAntônio Balbi de Queiroz Neto\nSecretário Municipal de Assistência\nSocial\nProtocolo 158143\n\n5\n\nRio Bananal\n\nSanta Leopoldina\n\nRESUMO DE ADITAMENTOS DE\nCONTRATOS ADMINISTRATIVOS,\nEM OBEDIÊNCIA AO ART. 61 §\nÚNICO DA LEI 8.666/93.\n\nDECRETO Nº 151/2015.\nEstabelece <strong>a</strong> listagem de projetos que serão apoiados por\nintermédio do Fundo CIDADES.\n\nTERMO DE ADITAMENTO\nNº 001 AO CONTRATO Nº"
               ]
            },
            "sort":[
               1434067200000
            ]
         },
         {
            "_index":"ionews_es",
            "_type":"diario",
            "_id":"3149_29",
            "_score":null,
            "fields":{
               "month":[
                  "06"
               ],
               "year":[
                  "2015"
               ],
               "day":[
                  "12"
               ],
               "diario_id":[
                  3149
               ],
               "pagina":[
                  29
               ]
            },
            "highlight":{
               "conteudo":[
                  "EXECUTIVO\n\nDIÁRIO OFICIAL DOS PODERES DO ESTADO\n\nVitória (ES), Sexta-feira, 12 de Junho de 2015.\nRIO NOVO DO SUL\nJULIANO GONCALVES VIANA\n3079538 , 4 , AUX SECRETARIA ESCOLAR - <strong>A</strong>\n30 H , 01/02/2015 <strong>A</strong> 02/02/2015\nGABINETE DO SECRETARIO , VITORIA\nJULIO CESAR CRUZ GUIMARAES\n3624650 , 1 , AUX SECRETARIA ESCOLAR - <strong>A</strong>\n30 H , 01/02/2015 <strong>A</strong> 02/02/2015\nEEEFM LUIZ MANOEL VELLOZO ,\nVILA VELHA\nKAIQUE RIBEIRO BARRADAS\n3624048 , 1 , AUX SECRETARIA ESCOLAR - <strong>A</strong>\n30 H , 01/02/2015 <strong>A</strong> 02/02/2015\nEEEFM OLAVO RODRIGUES",
                  " DA\nCOSTA , IBITIRAMA\nKAMYLLA MARQUES DE ALMEIDA\nVENCIONECK\n3274209 , 4 , AUX SECRETARIA ESCOLAR - <strong>A</strong>\n30 H , 01/02/2015 <strong>A</strong> 02/02/2015\nEEEFM SENADOR DIRCEU CARDOSO , MUQUI\n\nEEEFM PROF DOMINGOS UBALDO ,\nCACHOEIRO DE ITAPEMIRIM\n\nEEEFM PRESIDENTE KENNEDY ,\nPRESIDENTE KENNEDY\n\nKATIENE SCABELLO\n3430910 , 1 , AUX SECRETARIA ESCOLAR - <strong>A</strong>\n30 H , 01/02/2015 <strong>A</strong> 02/02/2015\nSRE CARAPINA , VITORIA\n\nLEIZIANE COLARES CASTRO\n3539466 , 1 , AUX SECRETARIA ESCOLAR - <strong>A</strong>\n30 H , 01/02/2015 <strong>A</strong> 02/02/2015\nEEEF DR EDWARD <strong>A</strong>",
                  " NASCIMENTO ,\nPEDRO CANARIO\n\nKELLY VALADARES PEREIRA\n3247635 , 2 , AUX SECRETARIA ESCOLAR - <strong>A</strong>\n30 H , 01/02/2015 <strong>A</strong> 02/02/2015\nEEEF TIRADENTES , CARIACICA\nKEROLAY HARRYYTANNA NUNES\nDOS SANTOS\n3278875 , 2 , AUX SECRETARIA ESCOLAR - <strong>A</strong>\n30 H , 01/02/2015 <strong>A</strong> 02/02/2015\nEEEFM MARCILIO DIAS , VILA VELHA\nKEYDMA DASCANI DE SOUZA\n3438007 , 1 , AUX SECRETARIA ESCOLAR - <strong>A</strong>\n30 H , 01/02/2015 <strong>A</strong> 02/02/2015\nEEEF ANTONIO CARNEIRO RIBEIRO , GUACUI\n\nKARINA LEANDRO VICENTE\n3621936 , 1 , AUX SECRETARIA ESCOLAR - <strong>A</strong>\n30 H"
               ]
            },
            "sort":[
               1434067200000
            ]
         },
         {
            "_index":"ionews_es",
            "_type":"diario",
            "_id":"3149_48",
            "_score":null,
            "fields":{
               "month":[
                  "06"
               ],
               "year":[
                  "2015"
               ],
               "day":[
                  "12"
               ],
               "diario_id":[
                  3149
               ],
               "pagina":[
                  48
               ]
            },
            "highlight":{
               "conteudo":[
                  "8\n\nDIÁRIO OFICIAL DOS PODERES DO ESTADO\n\nmão-de-obra e materiais, na forma\nde execução indireta, sob regime\nde empreitada por preço unitário,\ntorna público para o conhecimento\ndos interessados que, após analisar\nos questionamentos suscitados na\nSessão Pública do dia 27 de maio\nde 2015, face os documentos\nhabilitatórios apresentados pelas\nempresas licitantes, <strong>a</strong> CPL assim\ndecidiu:\n1.\tDeclarar\nhabilitadas,\npor terem apresentados todos os\nitens solicitados no instrumento\nconvocatório, as empresas",
                  ": GTG\nTransportadora e Construtora\nLtda. Me; Construtora Monte\nMorence Ltda. Me; JW Comércio\ne Serviços de Engenharia e\nDespachadoria Ltda. Me; e\nZanão Construções Ltda;\n2.\tDeclarar inabilitada <strong>a</strong>\nempresa Ricardo Longue Mozer\nEPP por não ter apresentado\nacervo técnico compatível com o\ndescrito no item 7.4, alínea “c.1”,\ninciso II e III do edital;\n3.\tDeclarar inabilitada <strong>a</strong>\nempresa\nFactor\nConstrutora\nLtda. Me por não ter apresentado\nacervo técnico compatível com o\ndescrito no item 7.4, alínea “c.1",
                  "”,\ninciso II e III do edital;\n4.\tDeclarar\ninabilitada\n<strong>a</strong> empresa Santana e Mongin\nConstrutora Ltda. Me por não\nter apresentado acervo técnico\ncompatível com o descrito no item\n7.4, alínea “c.1”, inciso II, III e IV,\nbem como por não ter apresentado\nos cálculos dos índices constantes\ndo item 7.5, “b” e “c” c/c § 2º do\nmesmo item do edital;\n5.\tDeclarar inabilitada <strong>a</strong>\nempresa Construtora Terrabrasil\nLtda. por ter garantia de proposta\nconstando\noutro\nCNPJ\nque\nnão o seu, qual seja CNPJ n."
               ]
            },
            "sort":[
               1434067200000
            ]
         },
         {
            "_index":"ionews_es",
            "_type":"diario",
            "_id":"3149_1",
            "_score":null,
            "fields":{
               "month":[
                  "06"
               ],
               "year":[
                  "2015"
               ],
               "day":[
                  "12"
               ],
               "diario_id":[
                  3149
               ],
               "pagina":[
                  1
               ]
            },
            "highlight":{
               "conteudo":[
                  "O Corpo de Bombeiros Militar do Espírito Santo finalizou mais uma importante\netapa dos trabalhos de criação do Sistema de Mergulho de Segurança Pública\ndo CBMES (SISMERG), que abrangerá todos os componentes necessários <strong>à</strong>\nrealização da atividade de mergulho na Corporação. Página 5\n\nO estudante Lucas Pinheiro Gusson, do 6º ano da EMEIEF Forno Grande, foi o\ngrande vencedor do Concurso de Fotografia da Natureza, promovido pelo Parque Estadual de Mata das Flores, em Castelo, sede da unidade",
                  " gerenciada pelo\nInstituto Estadual de Meio Ambiente e Recursos Hídricos (Iema). Página 6\n\nDIÁRIO OFICIAL\nPAU LO CES <strong>A</strong> R H <strong>A</strong> RTU N G GO M ES -\n\nR$ 1,70\nwww.dio.es.gov.br\n\nGovernador\n\nVitória (ES), Sexta-feira, 12 de Junho de 2015\n\nGovernador defende ética em\nencontro de legisladores\n<strong>A</strong> Conferência da União Nacional de Legisladores e Legislativos (Unale), acontece no Centro de Convenções de Vitória\n>>> Durante <strong>a</strong> solenidade de abertura da Conferência da União Nacional de Legisladores e Legislativos\n(Unale",
                  "), na noite da última quarta-feira (10), o governador Paulo Hartung aproveitou <strong>a</strong> oportunidade para\n\ndefender <strong>a</strong> importância dos valores éticos na política\ndemocrática e republicana. Realizado no Centro de\nConvenções de Vitória até esta sexta-feira (12), o\nencontro reúne legisladores de diferentes partes\n\ndo país. “As instituições públicas pertencem aos\ncidadãos, que delegam aos eleitos <strong>a</strong> condução dos\nnegócios públicos por tempo determinado, tendo\nem vista <strong>a</strong> produção de vida digna”, disse. Página 3"
               ]
            },
            "sort":[
               1434067200000
            ]
         },
         {
            "_index":"ionews_es",
            "_type":"diario",
            "_id":"3149_62",
            "_score":null,
            "fields":{
               "month":[
                  "06"
               ],
               "year":[
                  "2015"
               ],
               "day":[
                  "12"
               ],
               "diario_id":[
                  3149
               ],
               "pagina":[
                  62
               ]
            },
            "highlight":{
               "conteudo":[
                  "DIÁRIO OFICIAL DOS PODERES DO ESTADO\n\n6\n\nDIVERSOS\n\nVitória (ES), Sexta-feira, 12 de Junho de 2015.\n\nSanto, com o fornecimento de\nmateriais, equipamentos e pessoal\nqualificado, necessários <strong>à</strong> execução\ndos serviços.\nPeríodo: 12 (doze) meses <strong>a</strong> partir\ndo dia 02/06/2015.\nEsmael Nunes Loureiro\nPrefeito Municipal\nProtocolo 158210\nSUSPENSÃO DE CONTAGEM DE\nPRAZO CONTRATUAL\nCONTRATO Nº. 163/2014. REF.\n\nCP 05/2014\nContratante:\nMunicípio\nde\nSooretama - ES.\nContratada:\nCONSTRUTORA\nPAVICOL LTDA - ME. (CNPJ/MF",
                  "\n01.090.036/0001-76).\nObjeto: Contratação de Empresa de\nEngenharia para <strong>a</strong> execução de Obra\nde terraplanagem e pavimentação\ncom\nblocos\nhexagonais\nno\nbairro Bionativa do Município de\nSooretama, no estado do Espírito\nSanto, com o fornecimento de\nmateriais, equipamentos e pessoal\nqualificado, necessários <strong>à</strong> execução\n\ndos serviços.\nPeríodo: 12 (doze) meses <strong>a</strong> partir\ndo dia 02/06/2015.\nEsmael Nunes Loureiro\nPrefeito Municipal\nProtocolo 158211\nRESUMO DE CONTRATO\nNº. 0076/2015.\nContratante: O Município de",
                  "\nArt. 1º Fica alterada <strong>a</strong> data de convocação da IV Conferência de Segurança Alimentar e Nutricional de Vila Velha, para o dia 25 de junho de 2015, de\nacordo com o Decreto nº 068/2015.\nArt. 2º Este Decreto entra em vigor na data de sua publicação.\nDECRETO Nº 091/2015\nArt. 1º Fica alterado o cronograma de ações de implantação de Procedimentos Contábeis Patrimoniais e Específicos <strong>a</strong> serem adotados para atendimento\nàs Normas Brasileiras de Contabilidade Aplicadas ao Setor Público NBC-TSP, nos termos do"
               ]
            },
            "sort":[
               1434067200000
            ]
         },
         {
            "_index":"ionews_es",
            "_type":"diario",
            "_id":"3149_49",
            "_score":null,
            "fields":{
               "month":[
                  "06"
               ],
               "year":[
                  "2015"
               ],
               "day":[
                  "12"
               ],
               "diario_id":[
                  3149
               ],
               "pagina":[
                  49
               ]
            },
            "highlight":{
               "conteudo":[
                  "LICITAÇÕES\n\nDIÁRIO OFICIAL DOS PODERES DO ESTADO\n\nVitória (ES), Sexta-feira, 12 de Junho de 2015.\nAquisição\nde\nequipamentos/\nmaterial permanente (mobiliário\ngeral),\nEXCLUSIVAMENTE\nDE\nMICROEMPRESA OU EMPRESA DE\nPEQUENO PORTE, para atender <strong>a</strong>\nnecessidade de equipar <strong>a</strong> unidade\nde Ensino Infantil CEIM Nova\nEsperança.\nPP-0052-2015-ABERTURA: 25\nde Junho de 2015, às 10:00hs.\nPP-0053-2015-OBJETO:\nAquisição de material de consumo\n(materiais\npara\natividades\nlúdicas\ne\nbrinquedos\npara\nplayground",
                  "), EXCLUSIVAMENTE DE\nMICROEMPRESA OU EMPRESA DE\nPEQUENO PORTE, com intuito de\natender <strong>a</strong> necessidade da unidade\nde Ensino Infantil CEIM Nova\nEsperança.\nPP-0053-2015-ABERTURA: 25\nde Junho de 2015, às 13:30hs.\nPP-0054-2015-OBJETO:\nAquisição de equipamentos/material\nPermanente (aparelhos e utensílios\ndomésticos), EXCLUSIVAMENTE DE\nMICROEMPRESA E EMPRESA DE\nPEQUENO PORTE, para atender <strong>a</strong>\nnecessidade de equipar <strong>a</strong> unidade\nde Ensino Infantil CEIM Nova\nEsperança.\nPP-0054-2015-ABERTURA: 26\nde Junho de 2015, às 09:00hs.",
                  "\nPP-0055-2015-OBJETO:\nAquisição\nde\nmaterial\nde\nconsumo\n(instrumentos\nmusicais), EXCLUSIVAMENTE DE\nMICROEMPRESA E EMPRESA DE\nPEQUENO PORTE, para reposição e\nmelhoramento do desempenho da\nBanda Marcial Municipal de Jaguaré\n- ES.\nPP-0055-2015-ABERTURA: 26\nde Junho de 2015, às 13:30hs.\nLOCAL: Sala de Licitações da CPL,\nsito <strong>à</strong> Avenida Nove de Agosto,\n2.326 - Centro - Jaguaré - ES.\nAs empresas interessadas em\nparticipar do certame poderão\nretirar o edital através do site www.\njaguare.es.gov.br."
               ]
            },
            "sort":[
               1434067200000
            ]
         },
         {
            "_index":"ionews_es",
            "_type":"diario",
            "_id":"3149_70",
            "_score":null,
            "fields":{
               "month":[
                  "06"
               ],
               "year":[
                  "2015"
               ],
               "day":[
                  "12"
               ],
               "diario_id":[
                  3149
               ],
               "pagina":[
                  70
               ]
            },
            "highlight":{
               "conteudo":[
                  "14\n\nDIÁRIO OFICIAL DOS PODERES DO ESTADO\n\nDIVERSOS\n\nVitória (ES), Sexta-feira, 12 de Junho de 2015.\n\ndesta Defensoria Pública do Estado,\nconforme segue:\nNome/ Nº Funcional / Período\nAquisitivo/ Período de Gozo\nJosé Arcanjo de Oliveira /\n378840 / 2014-2015 / 01.07 <strong>a</strong>\n30.07.2015.\nVitória, 11 de junho de 2015.\nLeonardo Oggioni C. de\nMiranda\nDefensor Público Geral\nProtocolo 158228\nPORTARIA DPES Nº 442, DE 11\nDE JUNHO DE 2015.\nO Defensor Público-Geral do Estado\ndo Espírito Santo, no uso das",
                  "\natribuições que lhe são conferidas\npor lei, em atenção aos artigos 4º\ne 8º da Resolução 002/2014, do\nConselho Superior da Defensoria\nPública, e <strong>à</strong> Portaria nº 326, de 19\nde maio de 2014,\nRESOLVE:\nArt. 1º Designar os Defensores\nPúblicos\nabaixo\nrelacionados\npara, sem prejuízo de suas\nfunções, atuarem nas respectivas\ndefensorias, em substituição de\n\nAssembléia Legislativa do\nEspírito Santo - ALES -\n\n<strong>a</strong>\n\nArt. 2º. Esta Portaria entrará em\nvigor na data de sua publicação.\nVitória/ES, 11 de Junho de 2015.",
                  "\nLEONARDO OGGIONI C. DE\nMIRANDA\nDefensor Público Geral do\nEstado do Espírito Santo\nProtocolo 158251\nO Subdefensor Público Geral da\nDefensoria Pública do Estado do\nEspírito Santo,\nRESOLVE:\nTornar Público <strong>a</strong> concessão de\ngozo de férias do(<strong>a</strong>) Defensor(<strong>a</strong>)\nPúblico(<strong>a</strong>) desta Defensoria Pública\ndo Estado, conforme segue:\n\nCONTRATANTE:\nASSEMBLEIA\nLEGISLATIVA DO ESTADO DO\nESPÍRITO SANTO.\nCONTRATADA:\nTRANSEGUR\nSEGURANÇA E TRANSPORTE DE\nVALORES LTDA\nOBJETO: Contratação de empresa\nespecializada para <strong>a</strong> prestação de"
               ]
            },
            "sort":[
               1434067200000
            ]
         },
         {
            "_index":"ionews_es",
            "_type":"diario",
            "_id":"3149_18",
            "_score":null,
            "fields":{
               "month":[
                  "06"
               ],
               "year":[
                  "2015"
               ],
               "day":[
                  "12"
               ],
               "diario_id":[
                  3149
               ],
               "pagina":[
                  18
               ]
            },
            "highlight":{
               "conteudo":[
                  "10\n\nDIÁRIO OFICIAL DOS PODERES DO ESTADO\n\npor cores com tempo previsto para\ncada cor, cita o percentual de\natendimento mensal por cores, diz\nque o município de Vitória está bem\nestruturado para receber o paciente\nem consulta mas que esta não é\numa realidade em outros municípios\ndo Estado. O conselheiro Valdecir\nGomes do Nascimento diz que foi\nimportante <strong>a</strong> implantação da\nClassificação\nde\nRiscos,\nmas\nexistem instituições que precisam\nser observadas como é o caso\ndaquelas onde existe as OSCIPS",
                  ",\nque ate pouco tempo essas\norganizações não pagavam os\nfuncionários em dia e concorda que\nhá municípios que não estão\nestruturados e que o Estado deve\ntomar ciência disso. O conselheiro\nElio Rodrigues Dias questiona como\nfazer Classificação de Risco numa\ncriança e não concorda que um\npaciente classificado na cor azul\nleve oito horas para ser atendido. O\nconselheiro\nAntonio\nCarlos\nNogueira do Nascimento pergunta\nse <strong>a</strong> Assistente Social pode fazer\nClassificação de Risco e se o\nhospital\npode\ntransferir",
                  "\nessa\nresponsabilidade para o município.\n<strong>A</strong> relatora responde que há uma\npactuação e diz que há uma\npactuação em cada ponto de\natenção e que <strong>a</strong> unidade de saúde\nnão pode atender mais de um\npaciente classificado como verde,\nassim\ncomo\num\npaciente\nclassificado como gripe não pode\nser atendido num hospital, pois o\nenfoque é <strong>a</strong> gravidade desse\npaciente. <strong>A</strong> conselheira Maria\nAngélica Callegário Vieira diz que\naprova o protocolo, mas que <strong>a</strong>\nprática precisa ser revista e que\numa das dificuldades que <strong>a</strong> mesma"
               ]
            },
            "sort":[
               1434067200000
            ]
         },
         {
            "_index":"ionews_es",
            "_type":"diario",
            "_id":"3149_36",
            "_score":null,
            "fields":{
               "month":[
                  "06"
               ],
               "year":[
                  "2015"
               ],
               "day":[
                  "12"
               ],
               "diario_id":[
                  3149
               ],
               "pagina":[
                  36
               ]
            },
            "highlight":{
               "conteudo":[
                  "28\n\nDIÁRIO OFICIAL DOS PODERES DO ESTADO\n\nCONCESSÃO DE USO SEAG\nnº0044/2015\nPROCESSO SEAG Nº 68836066\nCONCEDENTE:\n<strong>A</strong>\nSecretaria\nde\nEstado\nda\nAgricultura,\nAbastecimento,\nAquicultura\ne Pesca - SEAG, CNPJ/MF:\n27.080.555/0001-47.\nCESSIONÁRIO:\nPrefeitura\nMunicipal de Mantenópolis, CNPJ/\nMF: 27.167.345/0001-90.\nOBJETO: 01) 01 (um) Veículo,\nOperacional, RP: 16810.\nVIGÊNCIA: Vigorará até o dia 31\nde dezembro de 2019, <strong>a</strong> partir da\npublicação do seu resumo no DOE/\nES, podendo ser prorrogado se\nhouver",
                  " interesse das partes.\nOCTACIANO GOMES DE SOUZA\nNETO\nSecretário de Estado da\nAgricultura, Abastecimento,\nAquicultura e Pesca.\nRESUMO DO CONTRATO DE\nCONCESSÃO DE USO SEAG\nnº0045/2015\nPROCESSO SEAG Nº 66045568\nCONCEDENTE:\n<strong>A</strong>\nSecretaria\nde\nEstado\nda\nAgricultura,\nAbastecimento,\nAquicultura\ne Pesca - SEAG, CNPJ/MF:\n27.080.555/0001-47.\nCESSIONÁRIO:\nPrefeitura\nMunicipal de Viana, CNPJ/MF:\n27.165.547/0001-01.\nOBJETO: 01) 01 (um) Veículo,\nOperacional, RP: 16865.\nVIGÊNCIA: Vigorará até o dia 31\nde dezembro de",
                  " 2019, <strong>a</strong> partir da\npublicação do seu resumo no DOE/\nES, podendo ser prorrogado se\nhouver interesse das partes.\nOCTACIANO GOMES DE SOUZA\nNETO\nSecretário de Estado da\nAgricultura, Abastecimento,\nAquicultura e Pesca.\nRESUMO DO CONTRATO DE\nCONCESSÃO DE USO SEAG\nnº0054/2015\nPROCESSO SEAG Nº 68762402\nCONCEDENTE:\n<strong>A</strong>\nSecretaria\nde\nEstado\nda\nAgricultura,\nAbastecimento,\nAquicultura\ne Pesca - SEAG, CNPJ/MF:\n27.080.555/0001-47.\nCESSIONÁRIO:\nPrefeitura\nMunicipal Domingos Martins, CNPJ/\nMF: 27.150.556/0001-10."
               ]
            },
            "sort":[
               1434067200000
            ]
         },
         {
            "_index":"ionews_es",
            "_type":"diario",
            "_id":"3149_42",
            "_score":null,
            "fields":{
               "month":[
                  "06"
               ],
               "year":[
                  "2015"
               ],
               "day":[
                  "12"
               ],
               "diario_id":[
                  3149
               ],
               "pagina":[
                  42
               ]
            },
            "highlight":{
               "conteudo":[
                  "2\n\nDIÁRIO OFICIAL DOS PODERES DO ESTADO\n\nLICITAÇÕES\n\nVitória (ES), Sexta-feira, 12 de Junho de 2015.\n\ncinquenta reais).\nCOMERCIAL SL LTDA-ME.\nItem 07, no valor total de R$\n111.000,00 (cento e onze mil\nreais).\nPublicações disponíveis no site\nwww.banestes.com.br.\nVitória, ES, 11 de Junho de 2015.\nComissão Permanente de Licitação\nPresidente da Licitação/Pregoeiro\nANSELMO MAGESKI\nProtocolo 158267\n\nSecretaria de Estado da Saúde\n- SESA AVISO DE LICITAÇÃO\n<strong>A</strong> SECRETARIA DE ESTADO DA\nSAÚDE torna pública",
                  " <strong>a</strong> divulgação das licitações na modalidade\nPREGÃO, de acordo com as Leis nº\n8.666/93 e 10.520/02 e Decreto\nnº 2458-R/10, por meio do sistema eletrônico. Os Editais estarão\ndisponíveis no Sistema do Siga,\nsite www.compras.es.gov.br, link\nÁrea do Fornecedor, para as licitações abaixo:\nPREGÃO\nELETRÔNICO\nnº\n0199/2015 - Proc. nº 67854125\nObjeto: Aquisição de Material\nPermanente - Estrutura para\nCapacitação.\nAbertura: 25/06/2015, às 08h.\nInício da Sessão de disputa:\n25/06/2015 às 10h.\nValor estimado da",
                  " LICITAÇÃO\n[b]<strong>A</strong> SECRETARIA DE ESTADO\nDA SAÚDE torna pública <strong>a</strong> divulgação das licitações na modalidade\nPREGÃO, de acordo com as Leis nº\n8.666/93 e 10.520/02 e Decreto\nnº 1.527-R/05, por meio do sistema eletrônico. Os Editais estarão\ndisponíveis nos sites www.seger.\nes.gov.br (link es-compras) ou\nwww.licitacoes-e.com.br[/b], para\nas licitações abaixo:\nPREGÃO\nELETRÔNICO\nnº\n0194/2015 - Proc. nº 69941939\n- ID: 588325.\nObjeto: Registro de Preços de\nMedicamentos.\nAbertura: 25/06/2015, às 08h.\nInício da"
               ]
            },
            "sort":[
               1434067200000
            ]
         }
      ]
   },
   "facets":{
      "FileYear":{
         "_type":"terms",
         "missing":0,
         "total":104370,
         "other":0,
         "terms":[
            {
               "term":2015,
               "count":9119
            },
            {
               "term":2014,
               "count":23131
            },
            {
               "term":2013,
               "count":20842
            },
            {
               "term":2012,
               "count":17761
            },
            {
               "term":2011,
               "count":16473
            },
            {
               "term":2010,
               "count":17044
            }
         ]
      }
   }
}
